7 Adatmanipuláció | Adatkezelés és egyváltozós elemzések R-ben
…
flow[c(1:2, 50:51), 1:5]
#>    alkatoi.tev kor   nem csaladi.allapot  isk.vegz
#> 1         Igen  26 Férfi     Egyedülálló   Egyetem
#> 2         Igen  20    Nő     Egyedülálló Gimnázium
#> 50         Nem  22    Nő     Egyedülálló Gimnázium
#> 51        Igen  39    Nő           Házas   Egyetem

Ne feledjük, hogy az RStudio-ban az Environment fülön is megjelenik a flow adatbázis a sikeres beolvasás után. Kattintva a neven a teljes adatbázist áttekinthetjük a bal felső részben (ezt a View(flow) paranccsal is kezdeményezhetjük), de a flow előtti ikonon kattintva megjeleníthetjük az adatbázis str()-ból ismert szerkezete is.

További kényelmi lehetőség, ha a tibble típus kényelmes megjelenítését is kihasználjuk. Ehhez konvertáljuk át az adattáblánkat tibble típusúvá, és egyszerűen jelenítsük meg az objektumot:

library(tidyverse)
flow.tbl <- as_tibble(flow) # tibble típusú adatbázis létrehozása
flow.tbl                    # kényelmes megjelenítés
#> # A tibble: 100 × 25
#>    alkat…¹   kor nem   csala…² isk.v…³ flow.1 flow.2 flow.3 flow.4 flow.5 flow.6
#>    <chr>   <dbl> <chr> <chr>   <chr>    <dbl>  <dbl>  <dbl>  <dbl>  <dbl>  <dbl>
#>  1 Igen       26 Férfi Egyedü… Egyetem      2      4      5      5      5      1
#>  2 Igen       20 Nő    Egyedü… Gimnáz…      4      4      5      5      5      4
#>  3 Nem        22 Nő    Élettá… Gimnáz…      4      4      3      4      5      2
#>  4 Nem        21 Férfi Egyedü… Gimnáz…      3      4      3      4      3      3
#>  5 Igen       21 Nő    Egyedü… Gimnáz…      5      5      5      2      3      4
#>  6 Igen       25 Nő    Elvált  Egyetem      5      5      5      5      5      1
#>  7 Nem        53 Nő    Özvegy  Gimnáz…      5      5      3      3      5      3
#>  8 Nem        21 Nő    Egyedü… Gimnáz…      4      4      4      4      5      2
#>  9 Nem        22 Nő    Élettá… Gimnáz…      5      4      4      5      5      2
#> 10 Nem        21 Nő    Egyedü… Gimnáz…      5      5      5      5      5      4
#> # … with 90 more rows, 14 more variables: flow.7 <dbl>, flow.8 <dbl>,
#> #   flow.9 <dbl>, flow.10 <dbl>, flow.11 <dbl>, flow.12 <dbl>, flow.13 <dbl>,
#> #   flow.14 <dbl>, flow.15 <dbl>, flow.16 <dbl>, flow.17 <dbl>, flow.18 <dbl>,
#> #   flow.19 <dbl>, flow.20 <dbl>, and abbreviated variable names ¹​alkatoi.tev,
#> #   ²​csaladi.allapot, ³​isk.vegz
#> # ℹ Use `print(n = ...)` to see more rows, and `colnames()` to see all variable names
…
7.1.6 Adattáblák indexelése

Az adattáblák indexelésére a mátrixok és listák indexelési eljárásait is használhatjuk. A 3.5. fejezetben már áttekintettük az Alap R lehetőségeit.

data.file <- "https://github.com/abarik/rdata/raw/master/r_alapok/metacritic_games.csv"
library(tidyverse)
d.tbl <- read_delim(file = data.file, delim = ",")
d.tbl
#> # A tibble: 5,699 × 15
#>    game     platf…¹ devel…² genre numbe…³ rating relea…⁴ posit…⁵ neutr…⁶ negat…⁷
#>    <chr>    <chr>   <chr>   <chr> <chr>   <chr>  <chr>     <dbl>   <dbl>   <dbl>
#>  1 Portal 2 PC      Valve … Acti… <NA>    E10+   Apr 18…      51       1       0
#>  2 The Eld… PC      Bethes… Role… No Onl… M      Nov 10…      32       0       0
#>  3 The Leg… 3DS     GREZZO  Misc… No Onl… E10+   Jun 19…      84       1       0
#>  4 Batman:… PC      Rockst… Acti… <NA>    T      Nov 21…      27       0       0
#>  5 Super M… 3DS     Ninten… Acti… No Onl… E      Nov 13…      81       1       0
#>  6 Deus Ex… PC      Nixxes… Acti… No Onl… M      Aug 23…      52       0       0
#>  7 Pushmo   3DS     Intell… Misc… 1 Play… E      Dec  8…      31       0       0
#>  8 Total W… PC      Creati… Stra… Online… T      Mar 15…      62       0       0
#>  9 FIFA So… PC      Electr… Spor… <NA>    E      Sep 27…      14       0       0
#> 10 Battlef… PC      EA DICE Acti… <NA>    M      Oct 25…      60       1       0
#> # … with 5,689 more rows, 5 more variables: positive_users <dbl>,
#> #   neutral_users <dbl>, negative_users <dbl>, metascore <dbl>,
#> #   user_score <dbl>, and abbreviated variable names ¹​platform, ²​developer,
#> #   ³​number_players, ⁴​release_date, ⁵​positive_critics, ⁶​neutral_critics,
#> #   ⁷​negative_critics
…
7.1.7 Válogatás az sorokból

A sorok leválogatatása nagyon fontos eszköz a kezünben ahhoz, hogy az elemzésünket a kívánt mintaelemekkel folytathassuk.

7.1.7.1 Sorok indexelése és a szűrés Alap R-ben

A sorok indexelésére a [ operátort használhatjuk, a vessző előtti részbe, a sorkoordintátákba írhatunk neumerikus vektort, pozitív és negatív értékekkel, logikai vektort és karakteres vektort, bár ez utóbbi használta nagyon ritkkán fordul elő.

A példákhoz a fivethirtyeight csomag unisex_names adattáblájából indulunk ki, amely amerikában használt uniszex neveket tartalmaz.

data("unisex_names", package = "fivethirtyeight")
unisex_names
#> # A tibble: 919 × 5
#>    name      total male_share female_share    gap
#>    <chr>     <dbl>      <dbl>        <dbl>  <dbl>
#>  1 Casey   176544.      0.584        0.416 0.169 
#>  2 Riley   154861.      0.508        0.492 0.0153
#>  3 Jessie  136382.      0.478        0.522 0.0443
#>  4 Jackie  132929.      0.421        0.579 0.158 
#>  5 Avery   121797.      0.335        0.665 0.330 
#>  6 Jaime   109870.      0.562        0.438 0.124 
#>  7 Peyton   94896.      0.434        0.566 0.133 
#>  8 Kerry    88964.      0.484        0.516 0.0321
#>  9 Jody     80401.      0.352        0.648 0.296 
#> 10 Kendall  79211.      0.372        0.628 0.255 
#> # … with 909 more rows
…
unisex_names[2, ]
#> # A tibble: 1 × 5
#>   name    total male_share female_share    gap
#>   <chr>   <dbl>      <dbl>        <dbl>  <dbl>
#> 1 Riley 154861.      0.508        0.492 0.0153
unisex_names[1:3, ]
#> # A tibble: 3 × 5
#>   name     total male_share female_share    gap
#>   <chr>    <dbl>      <dbl>        <dbl>  <dbl>
#> 1 Casey  176544.      0.584        0.416 0.169 
#> 2 Riley  154861.      0.508        0.492 0.0153
#> 3 Jessie 136382.      0.478        0.522 0.0443
unisex_names[-(1:3), ]
#> # A tibble: 916 × 5
#>    name      total male_share female_share    gap
#>    <chr>     <dbl>      <dbl>        <dbl>  <dbl>
#>  1 Jackie  132929.      0.421        0.579 0.158 
#>  2 Avery   121797.      0.335        0.665 0.330 
#>  3 Jaime   109870.      0.562        0.438 0.124 
#>  4 Peyton   94896.      0.434        0.566 0.133 
#>  5 Kerry    88964.      0.484        0.516 0.0321
#>  6 Jody     80401.      0.352        0.648 0.296 
#>  7 Kendall  79211.      0.372        0.628 0.255 
#>  8 Payton   64152.      0.334        0.666 0.331 
#>  9 Skyler   53486.      0.646        0.354 0.292 
#> 10 Frankie  51288.      0.624        0.376 0.247 
#> # … with 906 more rows
…
unisex_names %>% filter(gap<0.003, grepl(pattern = "^C", x = name) | grepl(pattern = "^K", x = name))
#> # A tibble: 6 × 5
#>   name      total male_share female_share      gap
#>   <chr>     <dbl>      <dbl>        <dbl>    <dbl>
#> 1 Kris     24956.      0.499        0.501 0.00275 
#> 2 Camdyn    3275.      0.500        0.500 0.000154
#> 3 Christan  2685.      0.501        0.499 0.00227 
#> 4 Kam        729.      0.501        0.499 0.00235 
#> 5 Kodee      533.      0.500        0.500 0.000316
#> 6 Callaway   292.      0.500        0.500 0.000455

unisex_names %>% filter_all(any_vars(.>0.4))
#> # A tibble: 919 × 5
#>    name      total male_share female_share    gap
#>    <chr>     <dbl>      <dbl>        <dbl>  <dbl>
#>  1 Casey   176544.      0.584        0.416 0.169 
#>  2 Riley   154861.      0.508        0.492 0.0153
#>  3 Jessie  136382.      0.478        0.522 0.0443
#>  4 Jackie  132929.      0.421        0.579 0.158 
#>  5 Avery   121797.      0.335        0.665 0.330 
#>  6 Jaime   109870.      0.562        0.438 0.124 
#>  7 Peyton   94896.      0.434        0.566 0.133 
#>  8 Kerry    88964.      0.484        0.516 0.0321
#>  9 Jody     80401.      0.352        0.648 0.296 
#> 10 Kendall  79211.      0.372        0.628 0.255 
#> # … with 909 more rows
…
