9 Grafika az R-ben | Adatkezelés és egyváltozós elemzések R-ben
…
Néhány ábraelem esetében azonban nem ilyen egyértelmű az aes() függvényben megadott oszlopvektorok és a ábraelem megjelenési paramétere közötti összefüggés.

Tekintsük például a dobozdiagramot, amelyben a fenti táblázat szerint a geom_boxplot() ábraelem ígényli az˛x, lower, middle, upper, ymax, ymin megjelenési paraméterek beállítását. Azonban a lenti árákat sokkal egyszerűbb aes() paraméterezéssel hoztuk létre, szó sincs benne a fent felsoroltak megadásáról.

data(survey, package = "MASS")
data.file <- "https://github.com/abarik/rdata/raw/master/r_alapok/metacritic_games.csv"

d.tbl <- read_delim(file = data.file, delim = ",")
d.tbl <- d.tbl %>% select(game, platform, genre, rating, metascore, user_score)
d.tbl
#> # A tibble: 5,699 × 6
#>    game                                    platform genre rating metas…¹ user_…²
#>    <chr>                                   <chr>    <chr> <chr>    <dbl>   <dbl>
#>  1 Portal 2                                PC       Acti… E10+        95      90
#>  2 The Elder Scrolls V: Skyrim             PC       Role… M           94      82
#>  3 The Legend of Zelda: Ocarina of Time 3D 3DS      Misc… E10+        94      90
#>  4 Batman: Arkham City                     PC       Acti… T           91      87
#>  5 Super Mario 3D Land                     3DS      Acti… E           90      84
#>  6 Deus Ex: Human Revolution               PC       Acti… M           90      85
#>  7 Pushmo                                  3DS      Misc… E           90      83
#>  8 Total War: Shogun 2                     PC       Stra… T           90      84
#>  9 FIFA Soccer 12                          PC       Spor… E           89      71
#> 10 Battlefield 3                           PC       Acti… M           89      76
#> # … with 5,689 more rows, and abbreviated variable names ¹​metascore,
#> #   ²​user_score
…
9.1.1 Dobozdiagram

data.file <- "https://github.com/abarik/rdata/raw/master/r_alapok/metacritic_games.csv"

d.tbl <- read_delim(file = data.file, delim = ",")
d.tbl <- d.tbl %>% select(game, platform, genre, rating, metascore, user_score)
d.tbl
#> # A tibble: 5,699 × 6
#>    game                                    platform genre rating metas…¹ user_…²
#>    <chr>                                   <chr>    <chr> <chr>    <dbl>   <dbl>
#>  1 Portal 2                                PC       Acti… E10+        95      90
#>  2 The Elder Scrolls V: Skyrim             PC       Role… M           94      82
#>  3 The Legend of Zelda: Ocarina of Time 3D 3DS      Misc… E10+        94      90
#>  4 Batman: Arkham City                     PC       Acti… T           91      87
#>  5 Super Mario 3D Land                     3DS      Acti… E           90      84
#>  6 Deus Ex: Human Revolution               PC       Acti… M           90      85
#>  7 Pushmo                                  3DS      Misc… E           90      83
#>  8 Total War: Shogun 2                     PC       Stra… T           90      84
#>  9 FIFA Soccer 12                          PC       Spor… E           89      71
#> 10 Battlefield 3                           PC       Acti… M           89      76
#> # … with 5,689 more rows, and abbreviated variable names ¹​metascore,
#> #   ²​user_score
…
data.file <- "https://github.com/abarik/rdata/raw/master/r_alapok/metacritic_games.csv"

d.tbl <- read_delim(file = data.file, delim = ",")
d.tbl <- d.tbl %>% select(game, platform, genre, metascore, user_score)
d.tbl
#> # A tibble: 5,699 × 5
#>    game                                    platform genre        metas…¹ user_…²
#>    <chr>                                   <chr>    <chr>          <dbl>   <dbl>
#>  1 Portal 2                                PC       Action            95      90
#>  2 The Elder Scrolls V: Skyrim             PC       Role-Playing      94      82
#>  3 The Legend of Zelda: Ocarina of Time 3D 3DS      Miscellaneo…      94      90
#>  4 Batman: Arkham City                     PC       Action Adve…      91      87
#>  5 Super Mario 3D Land                     3DS      Action            90      84
#>  6 Deus Ex: Human Revolution               PC       Action            90      85
#>  7 Pushmo                                  3DS      Miscellaneo…      90      83
#>  8 Total War: Shogun 2                     PC       Strategy          90      84
#>  9 FIFA Soccer 12                          PC       Sports            89      71
#> 10 Battlefield 3                           PC       Action            89      76
#> # … with 5,689 more rows, and abbreviated variable names ¹​metascore,
#> #   ²​user_score
…
