1 The tidy text format | Adatkezelés és egyváltozós elemzések R-ben
…
What does it mean that this data frame has printed out as a “tibble”? A tibble is a modern class of data frame within R, available in the dplyr and tibble packages, that has a convenient print method, will not convert strings to factors, and does not use row names. Tibbles are great for use with tidy tools.

Notice that this data frame containing text isn’t yet compatible with tidy text analysis, though. We can’t filter out words or count which occur most frequently, since each row is made up of multiple combined words. We need to convert this so that it has one-token-per-document-per-row.

A token is a meaningful unit of text, most often a word, that we are interested in using for further analysis, and tokenization is the process of splitting text into tokens.

In this first example, we only have one document (the poem), but we will explore examples with multiple documents soon.

Within our tidy text framework, we need to both break the text into individual tokens (a process called tokenization) and transform it to a tidy data structure. To do this, we use tidytext’s unnest_tokens() function.

library(tidytext)

text_df %>%
  unnest_tokens(word, text)
#> # A tibble: 20 x 2
#>     line word   
#>    <int> <chr>  
#>  1     1 because
#>  2     1 i      
#>  3     1 could  
#>  4     1 not    
#>  5     1 stop   
#>  6     1 for    
#>  7     1 death  
#>  8     2 he     
#>  9     2 kindly 
#> 10     2 stopped
#> # ... with 10 more rows
…
library(janeaustenr)
library(dplyr)
library(stringr)

original_books <- austen_books() %>%
  group_by(book) %>%
  mutate(linenumber = row_number(),
         chapter = cumsum(str_detect(text, 
                                     regex("^chapter [\\divxlc]",
                                           ignore_case = TRUE)))) %>%
  ungroup()

original_books
#> # A tibble: 73,422 x 4
#>    text                    book                linenumber chapter
#>    <chr>                   <fct>                    <int>   <int>
#>  1 "SENSE AND SENSIBILITY" Sense & Sensibility          1       0
#>  2 ""                      Sense & Sensibility          2       0
#>  3 "by Jane Austen"        Sense & Sensibility          3       0
#>  4 ""                      Sense & Sensibility          4       0
#>  5 "(1811)"                Sense & Sensibility          5       0
#>  6 ""                      Sense & Sensibility          6       0
#>  7 ""                      Sense & Sensibility          7       0
#>  8 ""                      Sense & Sensibility          8       0
#>  9 ""                      Sense & Sensibility          9       0
#> 10 "CHAPTER 1"             Sense & Sensibility         10       1
#> # ... with 73,412 more rows

To work with this as a tidy dataset, we need to restructure it in the one-token-per-row format, which as we saw earlier is done with the unnest_tokens() function.

library(tidytext)
tidy_books <- original_books %>%
  unnest_tokens(word, text)

tidy_books
#> # A tibble: 725,055 x 4
#>    book                linenumber chapter word       
#>    <fct>                    <int>   <int> <chr>      
#>  1 Sense & Sensibility          1       0 sense      
#>  2 Sense & Sensibility          1       0 and        
#>  3 Sense & Sensibility          1       0 sensibility
#>  4 Sense & Sensibility          3       0 by         
#>  5 Sense & Sensibility          3       0 jane       
#>  6 Sense & Sensibility          3       0 austen     
#>  7 Sense & Sensibility          5       0 1811       
#>  8 Sense & Sensibility         10       1 chapter    
#>  9 Sense & Sensibility         10       1 1          
#> 10 Sense & Sensibility         13       1 the        
#> # ... with 725,045 more rows
…
Now that the data is in one-word-per-row format, we can manipulate it with tidy tools like dplyr. Often in text analysis, we will want to remove stop words; stop words are words that are not useful for an analysis, typically extremely common words such as “the”, “of”, “to”, and so forth in English. We can remove stop words (kept in the tidytext dataset stop_words) with an anti_join().

data(stop_words)

tidy_books <- tidy_books %>%
  anti_join(stop_words)

The stop_words dataset in the tidytext package contains stop words from three lexicons. We can use them all together, as we have here, or filter() to only use one set of stop words if that is more appropriate for a certain analysis.

We can also use dplyr’s count() to find the most common words in all the books as a whole.

tidy_books %>%
  count(word, sort = TRUE) 
#> # A tibble: 13,914 x 2
#>    word       n
#>    <chr>  <int>
#>  1 miss    1855
#>  2 time    1337
#>  3 fanny    862
#>  4 dear     822
#>  5 lady     817
#>  6 sir      806
#>  7 day      797
#>  8 emma     787
#>  9 sister   727
#> 10 house    699
#> # ... with 13,904 more rows
…
